Just Another Statistics Textbook - Skewness and Kurtosis (incomplete)
…
Lets just imagine we want to summarise the life expectancy of people across the world. Using the gapminder [https://www.gapminder.org/] dataset that is freely available about the world, we can look at the distribution of life expectancies across countries in 2007:

# load the gapminder data
library(gapminder)

# create a new data frame that only focuses on data from 2007
gapminder_2007 <- subset(
  gapminder,   # the data set
  year == 2007     
)

# lets have a look at the data
gapminder_2007

# A tibble: 142 × 6
   country     continent  year lifeExp       pop gdpPercap
   <fct>       <fct>     <int>   <dbl>     <int>     <dbl>
 1 Afghanistan Asia       2007    43.8  31889923      975.
 2 Albania     Europe     2007    76.4   3600523     5937.
 3 Algeria     Africa     2007    72.3  33333216     6223.
 4 Angola      Africa     2007    42.7  12420476     4797.
 5 Argentina   Americas   2007    75.3  40301927    12779.
 6 Australia   Oceania    2007    81.2  20434176    34435.
 7 Austria     Europe     2007    79.8   8199783    36126.
 8 Bahrain     Asia       2007    75.6    708573    29796.
 9 Bangladesh  Asia       2007    64.1 150448339     1391.
10 Belgium     Europe     2007    79.4  10392226    33693.
# … with 132 more rows
# ℹ Use `print(n = ...)` to see more rows
…
